{
  "file_generated_by": "FlutterFire CLI",
  "purpose": "FirebaseAppID & ProjectID for this Firebase app in this directory",
  "GOOGLE_APP_ID": "1:1063623403622:ios:78feaf45bb94d3505125a7",
  "FIREBASE_PROJECT_ID": "work-schedule-39945",
  "GCM_SENDER_ID": "1063623403622"
}